Personal Art Map with R ·
…
library(osmdata)
bbx <- getbb("Boston, MA")

But sometimes you want a more specific area, and you can create your own bounding box:

min_lon <- -71.28735; max_lon <- -70.900578
min_lat <- 42.245838; max_lat <- 42.453673
bbx <- rbind(x=c(min_lon,max_lon),y=c(min_lat,max_lat))
colnames(bbx) <- c("min","max")

OSM data has many layers (or “features”). You can find them here. They go from railways, vegetation to streets or points of interest. Let’s see how many of them are related to highway.

available_tags("highway")

## # A tibble: 53 × 2
##    Key     Value                 
##    <chr>   <chr>                 
##  1 highway bridleway             
##  2 highway bus_guideway          
##  3 highway bus_stop              
##  4 highway busway                
##  5 highway construction          
##  6 highway corridor              
##  7 highway crossing              
##  8 highway cycleway              
##  9 highway elevator              
## 10 highway emergency_access_point
## # ℹ 43 more rows
…
